{
  "routes": [
    {
      "method": "GET",
      "path": "/practica-6-s",
      "handler": "practica6.find",
      "config": {
        "policies": []
      }
    },
    {
      "method": "GET",
      "path": "/practica-6-s/count",
      "handler": "practica6.count",
      "config": {
        "policies": []
      }
    },
    {
      "method": "GET",
      "path": "/practica-6-s/:id",
      "handler": "practica6.findOne",
      "config": {
        "policies": []
      }
    },
    {
      "method": "POST",
      "path": "/practica-6-s",
      "handler": "practica6.create",
      "config": {
        "policies": []
      }
    },
    {
      "method": "PUT",
      "path": "/practica-6-s/:id",
      "handler": "practica6.update",
      "config": {
        "policies": []
      }
    },
    {
      "method": "DELETE",
      "path": "/practica-6-s/:id",
      "handler": "practica6.delete",
      "config": {
        "policies": []
      }
    }
  ]
}
